TROLL Profiles Quick Start • ImportUtils
…
  dat_stable |>
    dplyr::select(DateTime, stationary_depth,is_stationary_status,pH_units_stable)
#> # A tibble: 266 × 4
#>    DateTime            stationary_depth is_stationary_status pH_units_stable
#>    <dttm>                         <dbl>                <dbl> <lgl>          
#>  1 2025-05-13 15:44:49           NA                        0 NA             
#>  2 2025-05-13 15:44:51            0.085                  888 NA             
#>  3 2025-05-13 15:44:53            0.085                  888 NA             
#>  4 2025-05-13 15:44:55            0.085                  888 NA             
#>  5 2025-05-13 15:44:57            0.085                  888 NA             
#>  6 2025-05-13 15:44:59            0.085                  888 NA             
#>  7 2025-05-13 15:45:01            0.085                  999 FALSE          
#>  8 2025-05-13 15:45:03            0.085                  999 FALSE          
#>  9 2025-05-13 15:45:05            0.085                  999 FALSE          
#> 10 2025-05-13 15:45:07            0.085                  999 FALSE          
#> # ℹ 256 more rows
…
